<svg width="18" height="18" viewBox="0 0 18 18" fill="none" xmlns="http://www.w3.org/2000/svg">
<path d="M16.3665 5.57325C16.2263 5.37075 15.996 5.25 15.75 5.25H5.49975L4.63425 3.1725C4.40025 2.6115 3.85725 2.25 3.24975 2.25H1.5V3.75H3.24975L6.80775 12.2887C6.924 12.5677 7.197 12.75 7.5 12.75H13.5C13.8128 12.75 14.0925 12.5557 14.2028 12.264L16.4528 6.264C16.539 6.033 16.5068 5.775 16.3665 5.57325Z" fill="#8094AE"/>
<path d="M7.875 15.75C8.49632 15.75 9 15.2463 9 14.625C9 14.0037 8.49632 13.5 7.875 13.5C7.25368 13.5 6.75 14.0037 6.75 14.625C6.75 15.2463 7.25368 15.75 7.875 15.75Z" fill="#8094AE"/>
<path d="M13.125 15.75C13.7463 15.75 14.25 15.2463 14.25 14.625C14.25 14.0037 13.7463 13.5 13.125 13.5C12.5037 13.5 12 14.0037 12 14.625C12 15.2463 12.5037 15.75 13.125 15.75Z" fill="#8094AE"/>
</svg>
