<svg width="32" height="32" viewBox="0 0 32 32" fill="none" xmlns="http://www.w3.org/2000/svg">
<path d="M24.0002 2.6665H8.00016C6.5295 2.6665 5.3335 3.8625 5.3335 5.33317V27.9998C5.3335 28.7358 5.9295 29.3332 6.66683 29.3332H25.3335C26.0708 29.3332 26.6668 28.7358 26.6668 27.9998V5.33317C26.6668 3.8625 25.4708 2.6665 24.0002 2.6665ZM24.0002 26.6665H8.00016V5.33317H24.0002V26.6665Z" fill="#7A89F2"/>
<path d="M10.6665 8H14.6665V10.6667H10.6665V8ZM17.3332 8H21.3332V10.6667H17.3332V8ZM10.6665 13.3333H14.6665V16H10.6665V13.3333ZM17.3332 13.3747H21.3332V16H17.3332V13.3747ZM10.6665 18.6667H14.6665V21.3333H10.6665V18.6667ZM17.3332 18.6667H21.3332V21.3333H17.3332V18.6667Z" fill="#7A89F2"/>
</svg>
