<svg width="45" height="35" viewBox="0 0 45 35" fill="none" xmlns="http://www.w3.org/2000/svg">
<path d="M5.56138 5.92971C5.75002 5.92343 5.85063 5.91085 5.95124 5.91085C9.18963 5.91085 12.428 5.91085 15.6664 5.90456C15.9179 5.90456 16.094 5.97373 16.2701 6.1498C18.1313 8.02366 19.9989 9.89123 21.8665 11.7525C21.9608 11.8468 22.0614 11.9349 22.1872 12.0481C24.9414 9.36303 27.6767 6.69687 30.4309 4.01184C29.9153 3.51507 29.4185 3.03718 28.928 2.56557C28.9469 2.53413 28.9658 2.50898 28.9846 2.47753C29.0287 2.47125 29.079 2.45867 29.123 2.45867C30.3806 2.45867 31.6382 2.45867 32.8959 2.45867C33.0845 2.45867 33.2103 2.47753 33.2103 2.72277C33.1977 4.01184 33.204 5.3009 33.204 6.58997C33.204 6.62141 33.1914 6.64656 33.1725 6.73459C32.8141 6.36988 32.4683 6.0429 32.1476 5.69077C31.9652 5.49583 31.852 5.5147 31.6697 5.69077C29.1293 8.17457 26.5889 10.6521 24.0485 13.1359C23.9227 13.2554 23.8095 13.3874 23.6523 13.5509C23.9982 13.8842 24.3189 14.1986 24.6395 14.513C25.0734 14.9406 25.5073 15.3682 25.9286 15.8021C26.0858 15.9718 26.1927 15.9718 26.3625 15.8084C28.6954 13.5824 31.0346 11.3564 33.3738 9.13666C35.9456 6.69058 38.5237 4.2445 41.0956 1.79842C41.1647 1.73554 41.2591 1.69781 41.3785 1.62864C40.7874 1.08157 40.2781 0.603673 39.7625 0.125776C39.7813 0.0943355 39.8065 0.0628948 39.8254 0.0251661C39.8882 0.018878 39.9511 1.36033e-05 40.014 1.36033e-05C41.2528 1.36033e-05 42.4852 1.36033e-05 43.724 1.36033e-05C43.9064 1.36033e-05 44.051 -0.00627451 44.051 0.251539C44.0447 1.55318 44.0447 2.84853 44.0447 4.15018C44.0447 4.16904 44.0321 4.1879 44.0007 4.25079C43.6737 3.9238 43.353 3.61568 43.0512 3.2887C42.8625 3.08119 42.7368 3.06862 42.523 3.26984C37.9515 7.62751 33.3738 11.9789 28.796 16.3366C28.4187 16.695 28.0414 17.0597 27.6264 17.4496C31.6382 21.279 35.6249 25.0833 39.6682 28.9442C39.511 28.9442 39.4104 28.9442 39.3097 28.9442C35.8198 28.9442 32.3299 28.9443 28.84 28.9505C28.6011 28.9505 28.4313 28.8814 28.2615 28.7116C26.7712 27.2087 25.2684 25.7122 23.7718 24.2156C23.7152 24.159 23.6586 24.0961 23.6272 24.0521C24.1051 23.5679 24.5767 23.09 25.0671 22.5932C25.13 22.6561 25.2181 22.7253 25.2935 22.8008C26.5763 24.0835 27.8591 25.36 29.1356 26.6491C29.3116 26.8252 29.494 26.9069 29.7455 26.9069C31.1792 26.9006 32.6192 26.9006 34.0529 26.9006C34.1598 26.9006 34.273 26.888 34.4867 26.8692C34.1661 26.5548 33.9208 26.3095 33.663 26.0706C31.2609 23.7754 28.8589 21.4865 26.4568 19.1914C26.1424 18.8958 26.1424 18.8895 25.8469 19.1914C22.0551 22.9831 18.2571 26.7811 14.4654 30.5729C14.3836 30.6546 14.3082 30.7364 14.195 30.8558C14.6729 31.3023 15.1319 31.7362 15.6601 32.2329C15.484 32.2581 15.4212 32.277 15.352 32.277C14.1132 32.277 12.8808 32.2832 11.642 32.2832C11.4911 32.2832 11.315 32.3273 11.315 32.0694C11.3213 30.7427 11.315 29.4096 11.315 27.9885C11.7929 28.4978 12.2142 28.9568 12.6544 29.4221C12.8053 29.2838 12.8933 29.2083 12.9751 29.1266C16.7794 25.3286 20.5774 21.5243 24.388 17.7262C24.6144 17.4999 24.6144 17.3804 24.388 17.1603C21.4012 14.186 18.4206 11.2117 15.4526 8.22488C15.2514 8.02366 15.0502 7.94191 14.7609 7.94191C13.4593 7.95449 12.1639 7.9482 10.8623 7.9482C10.7428 7.9482 10.6233 7.9482 10.4976 7.9482C10.4787 7.97964 10.4661 8.01108 10.4473 8.04881C13.4593 11.2117 16.4713 14.3747 19.5022 17.569C14 22.675 8.51051 27.7684 2.98954 32.8932C3.41084 33.3585 3.81957 33.7987 4.2786 34.308C4.00193 34.2892 3.79442 34.264 3.58062 34.2577C2.68142 34.2263 1.78222 34.2011 0.883018 34.176C0.744679 34.1697 0.612627 34.1508 0.480577 34.1382C0.00267917 34.0879 -0.00989555 34.0879 0.0026807 33.6226C0.0404094 32.4216 0.0844248 31.2206 0.13473 30.0132C0.13473 29.9881 0.153593 29.9566 0.185034 29.8812C0.656643 30.3842 1.10939 30.8684 1.581 31.3715C1.90798 31.0696 2.20981 30.7992 2.51164 30.5226C7.00765 26.3535 11.4974 22.1845 15.9871 18.0155C16.5719 17.4747 16.5593 17.4747 16.006 16.8899C12.7236 13.4503 9.45373 10.017 6.18391 6.57739C5.99526 6.38246 5.80662 6.18753 5.56138 5.92971Z" fill="white"/>
</svg>
